<svg width="100" height="100" viewBox="0 0 100 100" fill="none" xmlns="http://www.w3.org/2000/svg">
<path fill-rule="evenodd" clip-rule="evenodd" d="M50.001 100C77.6152 100 100.001 77.6142 100.001 50C100.001 22.3858 77.6152 0 50.001 0C22.3867 0 0.000976562 22.3858 0.000976562 50C0.000976562 77.6142 22.3867 100 50.001 100ZM50.0336 46.5278C46.1627 46.5278 42.384 44.959 39.8035 42.0985C37.3153 39.4221 36.0248 35.8229 36.1175 32.1313C36.2098 28.3473 37.7764 24.9333 40.5412 22.4416C43.1217 20.0423 46.4393 18.75 49.9414 18.75C53.8118 18.75 57.5905 20.3188 60.171 23.1798C65.4241 28.809 65.0547 37.6687 59.4333 42.8367C56.8528 45.2355 53.5352 46.5278 50.0336 46.5278ZM45.601 50H54.4022C64.4322 50 72.571 58.7834 72.5705 69.6071V81.2494L27.4316 81.25V69.6077C27.4316 58.7828 35.57 50 45.601 50Z" fill="currentcolor"/>
</svg>
