<svg xmlns="http://www.w3.org/2000/svg" xmlns:xlink="http://www.w3.org/1999/xlink" viewBox="0 0 100 100">
  <defs>
    <path id="a" d="M0 0h100v100H0z"/>
  </defs>
  <g fill="none" fill-rule="evenodd">
    <mask id="b" fill="#fff">
      <use xlink:href="#a"/>
    </mask>
    <path fill="#1CB569" fill-rule="nonzero" d="M50 98C23.4903 98 2 76.5097 2 50S23.4903 2 50 2s48 21.4903 48 48-21.4903 48-48 48z" mask="url(#b)"/>
    <g>
      <path fill="#FFF" d="M21.4068 60.7622c15.8224 3.1205 27.4125 1.0065 34.7704-6.342 8.0613-8.0614 8.2935-21.3048.51-29.0884-7.7836-7.7835-21.1138-7.5498-29.1752.5115-7.142 7.9371-9.177 19.5767-6.1052 34.9189z"/>
      <path fill="#1CB569" fill-rule="nonzero" d="M40.681 42.244l-2.1954-2.2372c1.5299-1.756 2.6017-3.7436 3.2326-5.8472h2.5325c.3962 0 .5942-.2971.5942-.8913 0-.5943-.198-.8914-.5942-.8914h-6.0503v-1.7827c0-.3961-.2953-.5942-.886-.5942-.5618 0-.8427.198-.8427.5942v1.7827h-6.0503c-.3961 0-.5942.2971-.5942.8914 0 .5942.198.8883.5942.8824h9.6546c-.5791 1.7203-1.4953 3.3514-2.74 4.7776-1.0232-1.1524-1.78-2.6658-2.042-3.1898-.2037-.4074-.2037-.8149-.8149-.8149s-1.0186.4075-.8149.815c.2037.4074 1.4419 3.0292 2.5223 4.2682-2.8262 2.8353-4.2926 4.3268-4.3994 4.4745-.1602.2216-.1602.629.2472 1.0365.4075.4075.8535.382 1.0187.2038.1101-.1189 1.5378-1.596 4.283-4.4313l2.6881 2.772c.438.2794.8222.1477 1.1528-.395.3609-.3962.1956-.8706-.4959-1.4232zm5.411-4.0606c-.2037-.4075-.4074-.4075-.794-.4075-.4284 0-.6321 0-.8358.4075-.2038.4074-3.7989 10.7645-3.8682 11.0017-.0693.237-.172.8149.8121.8149.6175 0 .7113-.513.815-.815.0596-.1736.3926-1.1216.9989-2.8437h4.1056c.5823 1.6213.9182 2.5692 1.0075 2.8438.134.4118.2038.8149 1.0187.8149.8544 0 .6659-.6612.6112-.815-.0547-.1536-3.6672-10.5942-3.871-11.0016zm-2.2151 6.3752l1.4002-3.8595 1.4002 3.8595H43.877z"/>
      <path fill="#FFF" stroke="#1CB569" stroke-width="1.815" d="M50.7195 39.8864c.1668.4367.7392 1.9473.8547 2.25.3406.893.6093 1.5809.8798 2.2461.1754.431.4993.7742.9277 1.0879 9.0862 6.6579 18.4939 13.5425 30.3812 22.235 1.4515 1.0614 3.0506 1.1505 4.4604.2248 1.3512-.8872 1.9826-2.5194 1.4663-4.0462-.2698-.7975-.804-1.5773-1.4442-2.0486-8.66-6.3733-16.5144-12.1216-30.6617-22.4527-.3644-.2658-.825-.4457-1.2653-.4753-.6334-.0427-1.2919-.0807-2.0959-.122-.4566-.0235-2.2023-.1085-2.6093-.1292l-1.3908-.0707.497 1.301z"/>
    </g>
  </g>
</svg>
