<?xml version="1.0" encoding="UTF-8"?>
<svg width="20px" height="20px" viewBox="0 0 20 20" version="1.1" xmlns="http://www.w3.org/2000/svg" xmlns:xlink="http://www.w3.org/1999/xlink">
    <!-- Generator: Sketch 51.3 (57544) - http://www.bohemiancoding.com/sketch -->
    <title>Atom/Icon/Asteriks Circle</title>
    <desc>Created with Sketch.</desc>
    <defs>
        <rect id="path-1" x="0" y="0" width="20" height="20"></rect>
    </defs>
    <g id="Atom/Icon/Asteriks-Circle" stroke="none" stroke-width="1" fill="none" fill-rule="evenodd">
        <g id="Atom/Icon/Asteriks">
            <g id="Atom/Background/Oval-Green">
                <mask id="mask-2" fill="white">
                    <use xlink:href="#path-1"></use>
                </mask>
                <g id="Background"></g>
                <path d="M10,19.6 C4.6980664,19.6 0.4,15.3019336 0.4,10 C0.4,4.6980664 4.6980664,0.4 10,0.4 C15.3019336,0.4 19.6,4.6980664 19.6,10 C19.6,15.3019336 15.3019336,19.6 10,19.6 Z" id="Atom/Background/Icon-Oval" fill="#1CB569" fill-rule="nonzero" mask="url(#mask-2)"></path>
            </g>
            <path d="M11.6095627,7.43014933 C11.6543749,7.4069213 11.6856218,7.39113747 11.7165212,7.37463194 C12.4293463,6.99373507 13.1412493,6.61106069 13.8552371,6.23234229 C14.4025525,5.94204542 15.0539262,6.13099699 15.3692286,6.66443971 C15.5267194,6.93089377 15.6792787,7.20090287 15.8500675,7.45872327 C16.1671608,7.93743713 15.9497422,8.57929512 15.4931604,8.82547478 C15.0816181,9.04738395 14.6718666,9.27263433 14.2613533,9.49644131 C13.9407585,9.67122619 13.6201502,9.84602444 13.2996756,10.0210365 C13.282836,10.0302315 13.2671457,10.0415114 13.2424876,10.0571883 C13.4085052,10.1478819 13.5663034,10.2342853 13.7243021,10.3203546 C14.306954,10.6377954 14.8859841,10.9621458 15.4734206,11.2704718 C16.0251731,11.5600737 16.1060034,12.2165394 15.869139,12.6205708 C15.6833549,12.9374769 15.4958334,13.2540357 15.2929824,13.5600763 C15.0159167,13.9780604 14.4087003,14.1347761 13.9321916,13.9124125 C13.6601644,13.7854603 13.3989895,13.6351063 13.1337917,13.4937067 C12.6465377,13.2339216 12.1599253,12.9729338 11.6729386,12.7126275 C11.6558851,12.7035127 11.6377758,12.6963625 11.6079055,12.682677 C11.6079055,12.7220764 11.6078921,12.7521071 11.6079055,12.7821245 C11.6079456,13.5349504 11.5960509,14.2880437 11.6118615,15.0405355 C11.6243308,15.6336253 11.1303143,16.0285285 10.7020258,16.0899799 C10.6580423,16.0962881 10.6136043,16.103358 10.5693534,16.103465 C10.1818143,16.1043738 9.79416817,16.1095326 9.40676265,16.1021151 C8.94657242,16.0933077 8.49204886,15.7156184 8.40544494,15.2800461 C8.39424523,15.2237001 8.39012887,15.1650821 8.39007541,15.1075199 C8.38930026,14.3235139 8.38987494,13.5395078 8.38994177,12.7554884 C8.38994177,12.7342785 8.38812415,12.7130686 8.38668075,12.6814073 C8.25052015,12.7544727 8.12360799,12.8224461 7.99680274,12.8906333 C7.38305093,13.2207306 6.77039503,13.5528994 6.15519982,13.8802969 C5.74735951,14.0973413 5.22935314,14.0462744 4.8961018,13.7558439 C4.81839884,13.6881244 4.75019825,13.6048751 4.6937186,13.5182845 C4.51247851,13.2404036 4.34114175,12.9561075 4.16163909,12.6770771 C3.88746017,12.2508602 3.96199567,11.571514 4.53374191,11.2734655 C5.26804424,10.8906575 5.99033162,10.4847952 6.71771098,10.0887293 C6.73464418,10.0795209 6.7505483,10.0684281 6.77534001,10.052965 C6.60162431,9.95811504 6.43596758,9.86751504 6.27019058,9.77716898 C5.68561412,9.45864565 5.10016896,9.14169936 4.5166216,8.82129159 C4.00450911,8.54010952 3.84884926,7.93013994 4.159621,7.43766035 C4.32243102,7.17963947 4.49557204,6.92736547 4.6444693,6.66153955 C4.99401234,6.03747011 5.72294202,5.99300541 6.18915978,6.24628178 C6.89543612,6.62995852 7.60453243,7.00844972 8.31249274,7.38906592 C8.3335423,7.40039928 8.35515319,7.41067681 8.39000859,7.42825152 C8.39000859,7.39152505 8.39000859,7.36621211 8.39000859,7.34089918 C8.3899685,6.59030515 8.40434902,5.83932355 8.38545119,5.08921066 C8.36964063,4.4616931 8.89606683,4.0267757 9.41744113,4.00968212 C9.82012262,3.9964777 10.2239,3.99710584 10.626635,4.0095752 C11.1502145,4.02581344 11.6203615,4.5268866 11.6125564,5.04339612 C11.6009959,5.80938639 11.6095761,6.57569742 11.6095895,7.34187481 C11.6095627,7.36594482 11.6095627,7.39006828 11.6095627,7.43014933 Z" id="Shape" fill="#FFFFFF" fill-rule="nonzero"></path>
        </g>
    </g>
</svg>