<svg width="111" height="101" viewBox="0 0 111 101" fill="none" xmlns="http://www.w3.org/2000/svg">
<path fill-rule="evenodd" clip-rule="evenodd" d="M0.409912 85.9261C0.409912 85.9261 53.2746 112.954 85.642 94.2952C109.289 80.6424 117.643 49.4667 103.991 25.8199C90.3383 2.17315 58.9581 -6.23473 35.3107 7.41809C3.18149 28.3835 0.409912 85.9261 0.409912 85.9261ZM82.7211 95.8314C82.7221 93.9819 82.7235 92.5014 82.7249 91.1518C82.7287 87.2444 82.7314 84.4343 82.7197 76.9442C82.7191 76.2448 82.922 75.8429 83.5326 75.4508C93.6091 68.9762 100.022 60.0764 101.33 47.957C102.081 40.9989 101.056 34.2358 97.5646 28.1219C90.1317 15.106 78.8686 8.00765 63.8364 7.22539C53.4324 6.68388 44.0123 9.50627 35.8677 16.1382C26.6824 23.6169 21.6973 33.1332 21.9557 45.1542C21.9713 45.909 21.987 46.6756 21.8754 47.4181C21.4951 49.9475 20.4989 52.2773 19.3943 54.5576C18.8152 55.7542 18.2206 56.9436 17.6261 58.133C16.7979 59.7895 15.9698 61.446 15.1837 63.1219C14.3108 64.984 13.5533 66.9028 12.8181 68.8235C12.452 69.778 12.6856 70.2686 13.6557 70.5792C14.2436 70.7674 14.864 70.8555 15.4844 70.9436C15.7411 70.98 15.9979 71.0165 16.2523 71.06C16.4612 71.0959 16.6729 71.1231 16.8845 71.1503C17.3199 71.2062 17.7551 71.2621 18.1665 71.3934C19.0061 71.6609 19.1621 72.0426 18.9474 72.8868C18.6995 73.8602 18.8835 74.7338 19.4752 75.5493C19.7039 75.8663 19.9031 76.205 20.12 76.574C20.2255 76.7534 20.3352 76.94 20.4545 77.1347C20.6878 76.942 20.9267 76.7474 21.1685 76.5504C21.7117 76.1077 22.2698 75.653 22.813 75.1807C23.3654 74.7004 23.9086 74.2083 24.4517 73.7163C25.5153 72.7529 26.5787 71.7897 27.7106 70.9152C29.0819 69.8556 30.5675 68.8913 32.1254 68.1398C34.0657 67.2029 36.0471 67.4319 37.8412 68.6904C39.1649 69.6188 40.473 70.5707 41.7687 71.5389C48.9563 76.9123 57.0409 78.9654 65.8941 77.8661C84.6456 75.5383 97.4602 58.1159 94.1943 39.4957C91.3413 23.2346 75.9993 11.6978 59.6682 13.5343C42.2691 15.4916 30.148 31.0337 32.5104 48.3582C34.4721 62.739 47.106 73.7408 61.6548 73.7343C79.0884 73.7271 92.3414 58.5595 89.9928 41.3035C88.001 26.6722 74.4315 16.2119 59.7719 18.0061C44.7247 19.8472 34.4265 33.7347 37.0544 48.6433C39.7201 63.7692 55.5463 73.0114 69.9266 67.8403C86.7758 61.7819 91.3498 40.139 78.3101 28.1754C71.3352 21.7758 61.1628 20.4194 52.7481 24.7665C44.6021 28.9753 40.0672 37.77 41.2781 47.0123C42.8895 59.3183 55.2885 67.5356 67.1917 64.036C74.3291 61.9371 79.0382 57.1692 80.8251 49.9312C82.5618 42.8968 80.7377 36.6478 75.4708 31.6222C66.3436 22.9136 51.1647 26.132 46.6996 37.7139C44.3868 43.7116 45.1736 49.4282 49.244 54.4342C53.1408 59.2263 58.3203 61.1588 64.4425 60.143C74.1817 58.5282 79.7591 47.97 75.6013 39.1544C71.36 30.1627 59.4059 28.3079 53.0312 35.6529C47.3938 42.1484 49.7411 52.2375 57.5857 55.2322C65.4387 58.2301 73.5958 51.9576 72.4417 43.8095C71.6046 37.8972 65.5666 34.1105 60.0655 36.0469C54.4163 38.0362 52.4786 45.0087 56.4022 49.2312C59.7804 52.8665 65.6925 52.0907 67.6217 47.7599C68.9604 44.7549 67.6015 41.2748 64.6447 40.2551C64.1876 40.0973 63.6962 40.0388 63.205 39.9802C62.9789 39.9533 62.7529 39.9263 62.5303 39.8897C62.636 40.169 62.7789 40.2238 62.9217 40.274C64.967 40.9917 66.2099 42.9535 65.9378 45.0328C65.6592 47.1571 64.0047 48.7797 61.966 48.9271C59.7164 49.0902 57.8577 47.8043 57.2321 45.6506C56.3605 42.6514 57.8643 39.6659 60.8014 38.5653C65.6142 36.7613 70.6815 41.1359 69.8673 46.3938C69.0218 51.8598 63.1801 54.8994 58.0091 52.5637C51.8445 49.7792 50.6199 41.3303 55.7648 36.6198C59.0758 33.588 62.9818 32.8957 67.1161 34.5509C71.5074 36.3092 73.9579 39.7488 74.2913 44.4424C74.896 52.9663 66.9843 59.4494 58.6158 57.425C49.4528 55.208 45.2225 44.5598 50.2617 36.3979C56.1197 26.9078 70.1295 26.9293 76.1682 36.5447C79.93 42.5353 79.8335 48.7634 75.9073 54.6026C71.8232 60.6754 65.8289 63.1415 58.6478 61.9058C46.9253 59.8885 40.4678 47.3939 45.2682 36.4097C50.9279 23.461 68.3876 20.7939 77.8997 31.5459C83.5405 37.922 84.812 45.3662 81.6256 53.226C78.3597 61.2828 72.062 65.8197 63.426 66.5224C50.233 67.5956 39.2608 57.2018 39.255 43.972C39.2491 31.1655 49.6955 20.621 62.576 20.4357C77.7184 20.2184 89.5557 33.509 87.3936 48.8567C85.6151 61.4798 75.112 70.7005 62.3763 71.0776C48.0573 71.5017 35.7763 60.216 34.8806 45.8151C33.7891 28.2459 48.8291 14.0602 66.5113 16.2256C81.1331 18.0159 91.9833 30.3382 92.0838 45.0641C92.2103 63.7744 75.5282 78.1649 56.7382 75.107C39.8082 72.3512 28.4041 56.7301 30.6647 39.6986C33.0636 21.6212 50.2813 8.94649 68.3204 11.9783C87.1972 15.1511 99.6478 33.235 95.8795 52.0066C90.8696 76.969 61.3351 88.3128 40.8866 73.1295C40.0015 72.4721 39.1095 71.8241 38.2173 71.1761C37.8007 70.8735 37.3842 70.5709 36.9683 70.2673C35.6484 69.3043 34.206 69.1484 32.7498 69.8191C31.7157 70.2947 30.6927 70.8617 29.797 71.5572C28.8986 72.2553 28.0421 73.0066 27.1854 73.758C26.5706 74.2972 25.9558 74.8365 25.3254 75.3562C23.6161 76.7648 21.8918 78.1584 20.1231 79.4893C19.211 80.1763 19.0786 80.3166 19.8588 81.1145C21.3359 82.6275 21.8852 84.4478 21.9883 86.5049C22.1253 89.2522 23.4256 90.7411 26.0763 91.3889C28.4921 91.9794 30.9478 91.971 33.4043 91.9625C33.6863 91.9615 33.9683 91.9605 34.2503 91.9605C38.1269 91.9592 40.4906 94.3209 40.4939 98.199C40.4942 98.5908 40.4944 98.924 40.4946 99.2077C54.5263 101.721 69.9537 101.935 82.7211 95.8314Z" fill="currentcolor"/>
</svg>
