<svg width="121" height="100" viewBox="0 0 121 100" fill="none" xmlns="http://www.w3.org/2000/svg">
<path fill-rule="evenodd" clip-rule="evenodd" d="M120.69 50.1331C120.69 24.5859 102.176 4.05063 76.5525 0.49245C31.3042 -5.79077 -0.384742 50.128 0.0035289 50.128C0.0345463 50.128 0.245354 50.4851 0.631283 51.1389C5.07676 58.6699 32.7589 105.565 76.5525 99.452C102.192 95.8728 120.69 75.6803 120.69 50.1331ZM113.793 50C113.793 73.7069 94.3966 93.1034 70.6897 93.1034C46.9828 93.1034 27.5862 73.7069 27.5862 50C27.5862 26.0776 46.9828 6.89655 70.6897 6.89655C94.3966 6.89655 113.793 26.2931 113.793 50Z" fill="currentcolor"/>
</svg>
