<?xml version="1.0" encoding="UTF-8"?>
<svg width="25px" height="25px" viewBox="0 0 25 25" version="1.1" xmlns="http://www.w3.org/2000/svg" xmlns:xlink="http://www.w3.org/1999/xlink">
    <!-- Generator: Sketch 51.3 (57544) - http://www.bohemiancoding.com/sketch -->
    <title>Atom/Icon/Portfolio</title>
    <desc>Created with Sketch.</desc>
    <defs>
        <rect id="path-1" x="0" y="0" width="25" height="25"></rect>
    </defs>
    <g id="Atom/Icon/Portfolio" stroke="none" stroke-width="1" fill="none" fill-rule="evenodd">
        <g id="Atom/Background/Oval-Green">
            <mask id="mask-2" fill="white">
                <use xlink:href="#path-1"></use>
            </mask>
            <g id="Background"></g>
            <path d="M12.5,24.5 C5.872583,24.5 0.5,19.127417 0.5,12.5 C0.5,5.872583 5.872583,0.5 12.5,0.5 C19.127417,0.5 24.5,5.872583 24.5,12.5 C24.5,19.127417 19.127417,24.5 12.5,24.5 Z" id="Atom/Background/Icon-Oval" fill="#1CB569" fill-rule="nonzero" mask="url(#mask-2)"></path>
        </g>
        <path d="M20,7 L16,7 L16,5 C16,4.44725 15.55225,4 15,4 L11,4 C10.44775,4 10,4.44725 10,5 L10,7 L6,7 C5.44775,7 5,7.44725 5,8 L5,19 C5,19.55275 5.44775,20 6,20 L20,20 C20.55225,20 21,19.55275 21,19 L21,8 C21,7.44725 20.55225,7 20,7 Z M12,6 L14,6 L14,7 L12,7 L12,6 Z M19,18 L7,18 L7,14 L11,14 L11,15 L15,15 L15,14 L19,14 L19,18 Z M19,13 L15,13 L15,12 L11,12 L11,13 L7,13 L7,9 L11,9 L15,9 L19,9 L19,13 Z" id="Shape" fill="#FFFFFF" fill-rule="nonzero"></path>
    </g>
</svg>