<svg width="106" height="100" viewBox="0 0 106 100" fill="none" xmlns="http://www.w3.org/2000/svg">
<path d="M52.6316 80.3684L85.1579 100L76.5263 63L105.263 38.1053L67.4211 34.8947L52.6316 0L37.8421 34.8947L0 38.1053L28.7368 63L20.1053 100L52.6316 80.3684Z" fill="currentcolor"/>
</svg>
