<?xml version="1.0" encoding="UTF-8"?>
<svg width="25px" height="25px" viewBox="0 0 25 25" version="1.1" xmlns="http://www.w3.org/2000/svg" xmlns:xlink="http://www.w3.org/1999/xlink">
    <!-- Generator: Sketch 51.3 (57544) - http://www.bohemiancoding.com/sketch -->
    <title>Atom/Icon/Team</title>
    <desc>Created with Sketch.</desc>
    <defs>
        <rect id="path-1" x="0" y="0" width="25" height="25"></rect>
    </defs>
    <g id="Atom/Icon/Team" stroke="none" stroke-width="1" fill="none" fill-rule="evenodd">
        <g id="Atom/Background/Oval-Green">
            <mask id="mask-2" fill="white">
                <use xlink:href="#path-1"></use>
            </mask>
            <g id="Background"></g>
            <path d="M12.5,24.5 C5.872583,24.5 0.5,19.127417 0.5,12.5 C0.5,5.872583 5.872583,0.5 12.5,0.5 C19.127417,0.5 24.5,5.872583 24.5,12.5 C24.5,19.127417 19.127417,24.5 12.5,24.5 Z" id="Atom/Background/Icon-Oval" fill="#1CB569" fill-rule="nonzero" mask="url(#mask-2)"></path>
        </g>
        <g id="team" transform="translate(2.400000, 6.000000)" fill="#FFFFFF">
            <path d="M9.00612107,14.2536444 C9.00612107,13.4711483 9.02237225,12.68829 9.0007355,11.9063373 C8.98476776,11.328069 9.22948042,10.8868282 9.66807353,10.5213917 C10.1189495,10.1457211 10.6436172,9.89131928 11.1963466,9.689899 C12.384762,9.25689972 13.6148447,9.00983382 14.8875395,9.00023375 C15.8914283,8.99253559 16.869712,9.17566141 17.8291935,9.4485388 C18.5190186,9.64470622 19.1832387,9.89947029 19.782643,10.2899938 C20.0437958,10.4601686 20.0444572,10.4618893 19.9168098,10.7413781 C18.8649233,13.043583 17.1736659,14.7725009 14.8396362,15.9161769 C13.6926992,16.4781431 12.4720649,16.8138738 11.1896383,16.9422068 C10.4963172,17.0115808 9.80327964,17.0189167 9.10873031,16.9619503 C9.02350606,16.9550672 9.00413691,16.928984 9.00432588,16.8509155 C9.00725487,15.9851887 9.00612107,15.1194618 9.00612107,14.2536444 Z" id="Shape"></path>
            <path d="M9,8.26360653 C8.65714602,8.44158961 8.35061555,8.62067923 8.06718355,8.83262464 C7.41109601,9.32299313 6.9144333,9.91805754 6.68661884,10.6895729 C6.60681584,10.9599097 6.56976768,11.2361197 6.56958651,11.5160749 C6.56849953,12.9762852 6.5691336,14.4365806 6.56904302,15.8967908 C6.56904302,16.0143397 6.56831836,16.0157016 6.44820624,15.9782494 C4.82288817,15.4722191 3.41732274,14.6388225 2.23458975,13.4753358 C1.25159071,12.5084731 0.517149488,11.3951213 0.0184939687,10.1430261 C-0.0121228461,10.0662491 -0.00840897212,10.018838 0.0577161013,9.95891449 C0.531280326,9.52957607 1.09279996,9.23046917 1.6880162,8.98319952 C2.62219138,8.59488828 3.60111421,8.34651209 4.60494718,8.1803605 C5.29753938,8.06570569 5.99457012,7.98986498 6.69911919,8.00110064 C7.37395727,8.01191071 8.04046178,8.09813589 8.70361474,8.21023714 C8.79220422,8.2251329 8.88043137,8.2419864 9,8.26360653 Z" id="Shape"></path>
            <path d="M6.99178689,5.99999801 C5.28968598,5.98195979 3.96687708,4.58942763 4.00063182,2.93502727 C4.03357861,1.31984431 5.33618853,-0.0128296993 7.02742687,9.32001557e-05 C8.63751018,0.0123879032 10.0014352,1.30898549 9.99999887,3.00529553 C9.99865227,4.6666958 8.64137043,6.0018826 6.99178689,5.99999801 Z" id="Shape"></path>
            <path d="M17,4.50796168 C16.999817,5.88900094 15.8846617,7.00018302 14.4989993,7 C13.1076633,6.99972548 11.9958024,5.87902657 12.0000119,4.48124133 C12.0043129,3.10697366 13.121756,1.99881135 14.5019277,2.00000096 C15.8896948,2.00137358 17.0000915,3.11630748 17,4.50796168 Z" id="Shape"></path>
        </g>
    </g>
</svg>